AthTPCnvSvc       WARNING Could not load converter for transient class [AthenaServicesTestConverters::TBTRIG]
AthTPCnvSvc       WARNING Could not load converter for transient class [AthenaServicesTestConverters::TBTRIG]
AthTPCnvSvc       WARNING could not load converter for transient CLID [20394825] (AthenaServicesTestConverters::TBTRIG)
AthTPCnvSvc       WARNING could not load converter for transient CLID [20394825] (AthenaServicesTestConverters::TBTRIG)
AthTPCnvSvc       WARNING could not load converter for transient CLID [20394824] (AthenaServicesTestConverters::TBTRIG)
AthTPCnvSvc       WARNING could not load converter for transient CLID [20394824] (AthenaServicesTestConverters::TBTRIG)
