{
  "_comment": "Copyright (C) 2002-2025 CERN for the benefit of the ATLAS collaboration",
  "L1_items": [
    "L1_eEM5",
    "L1_eEM9",
    "L1_eEM12L",
    "L1_eEM22M",
    "L1_LLPDPHI-jXE27-jJ27"
  ],
  "userDefinedL1items": [
    {
      "name": "L1_BPH-0DR3-eEM9jJ40_check",
      "definition": "TOPO_0DR03-eEM9ab-CjJ40ab[x1]"
    },
    {
      "name": "L1_jJ50p30ETA49_check",
      "definition": "jJ50p30ETA49[x1]"
    },
    {
      "name": "L1_jJ55p0ETA23_2jJ50p30ETA49",
      "definition": "jJ55p0ETA23[x1] & jJ50p30ETA49[x2]"
    },
    {
      "name": "L1_TOPO_SC111-CjJ40abpETA26_TOPO_HT150-jJ50s5pETA32",
      "definition": "TOPO_HT150-jJ50s5pETA32[x1] & TOPO_SC111-CjJ40abpETA26[x1]"
    },
    {
      "name": "L1_TOPO_0DETA24-eTAU30s2-eTAU12s2_TOPO_700INVM-AjJ60s6-AjJ50s6",
      "definition": "TOPO_0DETA24-eTAU30s2-eTAU12s2[x1] & TOPO_700INVM-AjJ60s6-AjJ50s6[x1]"
    }

  ]
}
